{
  "name": "icons",
  "css_prefix_text": "icon-",
  "css_use_suffix": false,
  "hinting": true,
  "units_per_em": 1000,
  "ascent": 850,
  "glyphs": [
    {
      "uid": "aec47313ed60b45181173a798d5cf25b",
      "css": "checkbox",
      "code": 59392,
      "src": "custom_icons",
      "selected": true,
      "svg": {
        "path": "M888.9 111.1V888.9H111.1V111.1H888.9M888.9 0H111.1C50 0 0 50 0 111.1V888.9C0 950 50 1000 111.1 1000H888.9C950 1000 1000 950 1000 888.9V111.1C1000 50 950 0 888.9 0L888.9 0Z",
        "width": 1000
      },
      "search": [
        "checkbox"
      ]
    },
    {
      "uid": "e1c76be7f83e2f83ed8b1e6e449c709c",
      "css": "checkbox-checked",
      "code": 59393,
      "src": "custom_icons",
      "selected": true,
      "svg": {
        "path": "M272.2 394.4L194.4 472.2 444.4 722.2 1000 166.7 922.2 88.9 444.4 566.7 272.2 394.4ZM888.9 888.9H111.1V111.1H666.7V0H111.1C50 0 0 50 0 111.1V888.9C0 950 50 1000 111.1 1000H888.9C950 1000 1000 950 1000 888.9V444.4H888.9V888.9Z",
        "width": 1000
      },
      "search": [
        "checkbox-checked"
      ]
    },
    {
      "uid": "97c0ee2bff1fb25078ce15f4fe963944",
      "css": "radio",
      "code": 59394,
      "src": "custom_icons",
      "selected": true,
      "svg": {
        "path": "M500 0C225 0 0 225 0 500S225 1000 500 1000 1000 775 1000 500 775 0 500 0ZM500 900C280 900 100 720 100 500S280 100 500 100 900 280 900 500 720 900 500 900Z",
        "width": 1000
      },
      "search": [
        "radio"
      ]
    },
    {
      "uid": "453d845f85df02fbafca597181130dd3",
      "css": "radio-checked",
      "code": 59395,
      "src": "custom_icons",
      "selected": true,
      "svg": {
        "path": "M500 250C360 250 250 360 250 500 250 640 360 750 500 750 640 750 750 640 750 500 750 360 640 250 500 250ZM500 0C225 0 0 225 0 500S225 1000 500 1000 1000 775 1000 500 775 0 500 0ZM500 900C280 900 100 720 100 500S280 100 500 100 900 280 900 500 720 900 500 900Z",
        "width": 1000
      },
      "search": [
        "radio-checked"
      ]
    },
    {
      "uid": "e82cedfa1d5f15b00c5a81c9bd731ea2",
      "css": "info-circled",
      "code": 59396,
      "src": "fontawesome"
    },
    {
      "uid": "b035c28eba2b35c6ffe92aee8b0df507",
      "css": "attention-circled",
      "code": 59397,
      "src": "fontawesome"
    },
    {
      "uid": "c76b7947c957c9b78b11741173c8349b",
      "css": "attention",
      "code": 59398,
      "src": "fontawesome"
    },
    {
      "uid": "0f4cae16f34ae243a6144c18a003f2d8",
      "css": "cancel-circled",
      "code": 59399,
      "src": "fontawesome"
    },
    {
      "uid": "e45e9f27ce40ba9837cc984076d98067",
      "css": "search",
      "code": 59400,
      "src": "elusive"
    },
    {
      "uid": "afdb6de29702e88d79539d600c42d4a8",
      "css": "comment-alt",
      "code": 59401,
      "src": "elusive"
    },
    {
      "uid": "e45a3da2ebde8bc8e30a873f3bd51f30",
      "css": "eye",
      "code": 59402,
      "src": "elusive"
    },
    {
      "uid": "616b755d0f4c7d2dc7a1dcc2e5427039",
      "css": "down-open",
      "code": 59403,
      "src": "elusive"
    },
    {
      "uid": "c0a07aca383ff2a164a4d691fa46e35c",
      "css": "left-open",
      "code": 59404,
      "src": "elusive"
    },
    {
      "uid": "dc4a03854ef986d64565143bea4241aa",
      "css": "right-open",
      "code": 59405,
      "src": "elusive"
    },
    {
      "uid": "b91c0e6aaab5e3146732b69dd418e120",
      "css": "up-open",
      "code": 59406,
      "src": "elusive"
    },
    {
      "uid": "23a1de57eb7b0c8281656a3ddadf3ee3",
      "css": "phone-circled",
      "code": 59407,
      "src": "elusive"
    },
    {
      "uid": "24a1eb628343fabd6f46a0a13456c045",
      "css": "print",
      "code": 59408,
      "src": "elusive"
    },
    {
      "uid": "54ee0df068f4afe93779eb184f9b77f2",
      "css": "desktop-circled",
      "code": 59409,
      "src": "elusive"
    },
    {
      "uid": "1748e31f171a4060d1b498bf3a1af254",
      "css": "compass-circled",
      "code": 59410,
      "src": "elusive"
    },
    {
      "uid": "67a9d2e5512b8aa812eff7da6d36bffc",
      "css": "ok-circled",
      "code": 59411,
      "src": "elusive"
    },
    {
      "uid": "1145676a91138011729fa2909997af66",
      "css": "linkedin-squared",
      "code": 59412,
      "src": "fontawesome"
    },
    {
      "uid": "20370af73ca90f73b4bda366d92303d9",
      "css": "play",
      "code": 59413,
      "src": "elusive"
    },
    {
      "uid": "fc006ff27e50163bdec3a7588226171b",
      "css": "play-circled",
      "code": 59414,
      "src": "elusive"
    },
    {
      "uid": "a4232c4b087d715e826ba0793dab59ae",
      "css": "book",
      "code": 59415,
      "src": "elusive"
    },
    {
      "uid": "499b745a2e2485bdd059c3a53d048e5f",
      "css": "cancel",
      "code": 59416,
      "src": "elusive"
    },
    {
      "uid": "cd9ad52ef0740bb86ff11af9646d4859",
      "css": "list",
      "code": 59417,
      "src": "elusive"
    },
    {
      "uid": "cc8e2a0eff0356811984b84a868524f8",
      "css": "check-empty",
      "code": 59418,
      "src": "elusive"
    },
    {
      "uid": "e2d87e7631c608efe71762a9f4c95e75",
      "css": "check",
      "code": 59419,
      "src": "elusive"
    },
    {
      "uid": "829c06a0a3b73b02a6224f4bbb73d99c",
      "css": "home",
      "code": 59420,
      "src": "elusive"
    }
  ]
}